{
  "OutputMode": {
    "Path": "OpenTabletDriver.Desktop.Output.AbsoluteMode",
    "Settings": [],
    "Enable": true
  },
  "Filters": [],
  "AutoHook": true,
  "LockUsableAreaDisplay": true,
  "LockUsableAreaTablet": true,
  "DisplayWidth": 1920.0,
  "DisplayHeight": 1080.0,
  "DisplayXOffset": 1922.0,
  "DisplayYOffset": 540.0,
  "TabletWidth": 82.55,
  "TabletHeight": 51.1,
  "TabletXOffset": 50.98033,
  "TabletYOffset": 33.6809,
  "TabletRotation": 0.0,
  "EnableClipping": true,
  "EnableAreaLimiting": false,
  "LockAspectRatio": false,
  "XSensitivity": 10.0,
  "YSensitivity": 10.0,
  "RelativeRotation": 0.0,
  "RelativeResetDelay": "00:00:00.1000000",
  "TipActivationPressure": 25.0,
  "TipButton": {
    "Path": "OpenTabletDriver.Desktop.Binding.MouseBinding",
    "Settings": [
      {
        "Property": "Button",
        "Value": "Left",
        "HasValue": true
      }
    ],
    "Enable": true
  },
  "EraserActivationPressure": 0.0,
  "EraserButton": null,
  "PenButtons": [
    {
      "Path": "OpenTabletDriver.Desktop.Binding.MouseBinding",
      "Settings": [
        {
          "Property": "Button",
          "Value": "Middle",
          "HasValue": true
        }
      ],
      "Enable": true
    },
    {
      "Path": "OpenTabletDriver.Desktop.Binding.MouseBinding",
      "Settings": [
        {
          "Property": "Button",
          "Value": "Right",
          "HasValue": true
        }
      ],
      "Enable": true
    }
  ],
  "AuxButtons": [
    {
      "Path": "OpenTabletDriver.Desktop.Binding.KeyBinding",
      "Settings": [
        {
          "Property": "Key",
          "Value": "LeftBracket",
          "HasValue": true
        }
      ],
      "Enable": true
    },
    {
      "Path": "OpenTabletDriver.Desktop.Binding.KeyBinding",
      "Settings": [
        {
          "Property": "Key",
          "Value": "RightBracket",
          "HasValue": true
        }
      ],
      "Enable": true
    },
    null,
    null,
    null,
    null,
    null,
    null
  ],
  "Tools": [],
  "Interpolators": []
}